1;150;50;1450;1
2;150;50;1449;2
3;150;50;1450;3
4;150;50;1451;4
5;150;55;1449;5
6;150;55;1451;6
7;150;50;1449;7
8;150;55;1449;8
9;150;50;1450;9
10;150;50;1449;10
11;150;50;1451;11
12;150;50;1450;12
13;150;50;1449;13
14;150;50;1450;14
15;150;50;1449;15
16;150;50;1449;16
17;150;50;1451;17
18;150;50;1451;18
19;150;50;1450;19
20;150;50;1450;20
21;150;50;1449;21
22;150;55;1449;22
23;150;50;1450;23
24;150;50;1449;24
25;150;50;1449;25
26;150;50;1449;26
27;150;50;1451;27
28;150;50;1450;28
29;150;50;1449;29
30;150;50;1450;30
31;150;50;1452;31
32;150;50;1452;32
33;150;50;1451;33
34;150;55;1452;34
35;150;50;1451;35
36;150;50;1451;36
37;150;50;1450;37
38;150;55;1451;38
39;150;50;1450;39
40;150;50;1450;40
41;150;50;1450;41
42;150;50;1450;42
43;150;50;1449;43
44;150;50;1451;44
45;150;50;1449;45
46;150;50;1451;46
47;150;55;1452;47
48;150;50;1452;48
49;150;50;1452;49
50;150;50;1451;50
51;150;55;1450;51
52;150;50;1451;52
53;150;50;1451;53
54;150;55;1449;54
55;150;50;1450;55
56;150;50;1450;56
57;150;50;1451;57
58;150;50;1451;58
59;150;55;1451;59
60;150;50;1450;60
61;150;50;1450;61
62;150;55;1450;62
63;150;50;1450;63
64;150;50;1451;64
65;150;50;1451;65
66;150;55;1451;66
67;150;55;1451;67
68;150;55;1453;68
69;150;50;1449;69
70;150;50;1450;70
71;150;50;1451;71
72;150;50;1450;72
73;150;50;1450;73
74;150;50;1451;74
75;150;50;1449;75
76;150;50;1450;76
77;150;50;1450;77
78;150;50;1449;78
79;150;50;1450;79
80;150;50;1449;80
81;150;50;1449;81
82;150;50;1450;82
83;150;50;1451;83
84;150;50;1451;84
85;150;50;1451;85
86;150;50;1451;86
87;150;50;1452;87
88;150;50;1449;88
89;150;50;1450;89
90;150;55;1452;90
91;150;50;1452;91
92;150;50;1450;92
93;150;50;1451;93
94;150;50;1452;94
95;150;50;1449;95
96;150;50;1450;96
97;150;50;1450;97
98;150;55;1452;98
99;150;50;1452;99
100;150;50;1451;100
1;200;55;2715;1
2;200;55;2716;2
3;200;55;2715;3
4;200;60;2717;4
5;200;55;2715;5
6;200;50;2716;6
7;200;50;2714;7
8;200;50;2715;8
9;200;55;2715;9
10;200;50;2717;10
11;200;55;2716;11
12;200;55;2715;12
13;200;45;2715;13
14;200;55;2715;14
15;200;55;2716;15
16;200;55;2715;16
17;200;50;2716;17
18;200;50;2715;18
19;200;55;2716;19
20;200;50;2717;20
21;200;50;2716;21
22;200;50;2715;22
23;200;55;2715;23
24;200;55;2716;24
25;200;55;2715;25
26;200;55;2715;26
27;200;50;2715;27
28;200;50;2716;28
29;200;55;2715;29
30;200;50;2716;30
31;200;50;2715;31
32;200;55;2715;32
33;200;50;2716;33
34;200;50;2714;34
35;200;55;2715;35
36;200;55;2717;36
37;200;50;2718;37
38;200;55;2716;38
39;200;50;2716;39
40;200;55;2715;40
41;200;50;2716;41
42;200;55;2716;42
43;200;50;2715;43
44;200;55;2717;44
45;200;50;2715;45
46;200;55;2716;46
47;200;50;2716;47
48;200;50;2717;48
49;200;50;2714;49
50;200;55;2715;50
51;200;50;2716;51
52;200;50;2716;52
53;200;50;2715;53
54;200;50;2716;54
55;200;50;2715;55
56;200;50;2716;56
57;200;55;2714;57
58;200;55;2715;58
59;200;50;2714;59
60;200;50;2716;60
61;200;55;2716;61
62;200;50;2716;62
63;200;50;2714;63
64;200;55;2716;64
65;200;55;2715;65
66;200;50;2715;66
67;200;55;2715;67
68;200;55;2715;68
69;200;55;2716;69
70;200;55;2715;70
71;200;55;2715;71
72;200;50;2717;72
73;200;55;2717;73
74;200;55;2716;74
75;200;50;2716;75
76;200;50;2713;76
77;200;50;2715;77
78;200;50;2716;78
79;200;50;2715;79
80;200;55;2716;80
81;200;50;2714;81
82;200;50;2715;82
83;200;55;2716;83
84;200;55;2717;84
85;200;55;2716;85
86;200;55;2715;86
87;200;55;2716;87
88;200;50;2717;88
89;200;50;2716;89
90;200;55;2716;90
91;200;50;2715;91
92;200;55;2717;92
93;200;55;2715;93
94;200;50;2716;94
95;200;50;2716;95
96;200;55;2716;96
97;200;55;2715;97
98;200;50;2715;98
99;200;50;2715;99
100;200;55;2713;100
1;250;55;4282;1
2;250;55;4282;2
3;250;55;4283;3
4;250;55;4285;4
5;250;55;4281;5
6;250;55;4284;6
7;250;55;4284;7
8;250;55;4286;8
9;250;50;4280;9
10;250;55;4281;10
11;250;55;4282;11
12;250;50;4287;12
13;250;50;4285;13
14;250;50;4285;14
15;250;55;4285;15
16;250;50;4287;16
17;250;50;4282;17
18;250;50;4280;18
19;250;50;4283;19
20;250;60;4284;20
21;250;55;4282;21
22;250;55;4281;22
23;250;55;4280;23
24;250;55;4284;24
25;250;50;4282;25
26;250;60;4281;26
27;250;50;4285;27
28;250;50;4285;28
29;250;50;4283;29
30;250;50;4284;30
31;250;50;4285;31
32;250;55;4284;32
33;250;55;4281;33
34;250;55;4283;34
35;250;55;4283;35
36;250;65;4281;36
37;250;50;4283;37
38;250;55;4281;38
39;250;50;4283;39
40;250;50;4283;40
41;250;50;4285;41
42;250;50;4285;42
43;250;45;4285;43
44;250;50;4285;44
45;250;55;4281;45
46;250;50;4284;46
47;250;50;4286;47
48;250;55;4283;48
49;250;60;4280;49
50;250;55;4281;50
51;250;55;4281;51
52;250;55;4283;52
53;250;50;4287;53
54;250;60;4283;54
55;250;55;4281;55
56;250;55;4281;56
57;250;50;4284;57
58;250;50;4285;58
59;250;50;4284;59
60;250;55;4282;60
61;250;55;4280;61
62;250;50;4282;62
63;250;50;4282;63
64;250;55;4281;64
65;250;60;4280;65
66;250;55;4285;66
67;250;55;4283;67
68;250;55;4284;68
69;250;55;4282;69
70;250;55;4282;70
71;250;55;4281;71
72;250;50;4286;72
73;250;50;4284;73
74;250;50;4288;74
75;250;50;4283;75
76;250;55;4284;76
77;250;50;4283;77
78;250;55;4281;78
79;250;55;4282;79
80;250;60;4283;80
81;250;55;4283;81
82;250;50;4285;82
83;250;55;4282;83
84;250;50;4286;84
85;250;55;4284;85
86;250;50;4283;86
87;250;55;4282;87
88;250;50;4285;88
89;250;50;4283;89
90;250;50;4284;90
91;250;55;4281;91
92;250;55;4282;92
93;250;55;4285;93
94;250;55;4283;94
95;250;55;4284;95
96;250;55;4280;96
97;250;55;4283;97
98;250;55;4287;98
99;250;50;4286;99
100;250;50;4286;100
1;300;55;6194;1
2;300;55;6192;2
3;300;60;6198;3
4;300;50;6196;4
5;300;55;6194;5
6;300;55;6194;6
7;300;55;6192;7
8;300;55;6194;8
9;300;50;6195;9
10;300;50;6194;10
11;300;50;6194;11
12;300;55;6194;12
13;300;55;6190;13
14;300;55;6194;14
15;300;55;6194;15
16;300;55;6192;16
17;300;55;6195;17
18;300;55;6193;18
19;300;50;6197;19
20;300;55;6193;20
21;300;50;6191;21
22;300;55;6199;22
23;300;55;6195;23
24;300;50;6196;24
25;300;50;6194;25
26;300;50;6193;26
27;300;55;6197;27
28;300;50;6199;28
29;300;55;6196;29
30;300;55;6196;30
31;300;50;6193;31
32;300;50;6194;32
33;300;55;6197;33
34;300;60;6196;34
35;300;55;6196;35
36;300;50;6194;36
37;300;55;6195;37
38;300;50;6195;38
39;300;55;6194;39
40;300;55;6194;40
41;300;55;6195;41
42;300;55;6197;42
43;300;55;6194;43
44;300;55;6194;44
45;300;50;6193;45
46;300;50;6194;46
47;300;55;6193;47
48;300;50;6195;48
49;300;55;6195;49
50;300;55;6194;50
51;300;50;6198;51
52;300;55;6195;52
53;300;55;6194;53
54;300;50;6190;54
55;300;50;6194;55
56;300;55;6197;56
57;300;50;6196;57
58;300;50;6193;58
59;300;55;6189;59
60;300;60;6196;60
61;300;50;6193;61
62;300;55;6194;62
63;300;60;6200;63
64;300;55;6196;64
65;300;55;6192;65
66;300;55;6193;66
67;300;55;6196;67
68;300;50;6195;68
69;300;50;6196;69
70;300;50;6193;70
71;300;50;6194;71
72;300;55;6200;72
73;300;55;6195;73
74;300;50;6193;74
75;300;55;6194;75
76;300;55;6194;76
77;300;50;6194;77
78;300;50;6193;78
79;300;55;6196;79
80;300;55;6194;80
81;300;55;6196;81
82;300;55;6195;82
83;300;55;6194;83
84;300;55;6195;84
85;300;50;6198;85
86;300;60;6194;86
87;300;50;6198;87
88;300;50;6197;88
89;300;50;6192;89
90;300;55;6190;90
91;300;55;6192;91
92;300;50;6194;92
93;300;55;6194;93
94;300;50;6195;94
95;300;55;6191;95
96;300;50;6196;96
97;300;55;6193;97
98;300;50;6192;98
99;300;50;6194;99
100;300;50;6194;100
1;350;55;8507;1
2;350;50;8505;2
3;350;55;8506;3
4;350;50;8506;4
5;350;55;8505;5
6;350;50;8508;6
7;350;50;8504;7
8;350;55;8505;8
9;350;55;8506;9
10;350;50;8504;10
11;350;55;8508;11
12;350;55;8504;12
13;350;50;8505;13
14;350;55;8503;14
15;350;55;8503;15
16;350;55;8504;16
17;350;50;8504;17
18;350;55;8507;18
19;350;55;8504;19
20;350;55;8502;20
21;350;50;8503;21
22;350;55;8503;22
23;350;55;8504;23
24;350;55;8507;24
25;350;50;8502;25
26;350;50;8507;26
27;350;55;8511;27
28;350;55;8506;28
29;350;55;8505;29
30;350;50;8504;30
31;350;50;8506;31
32;350;50;8503;32
33;350;55;8504;33
34;350;55;8503;34
35;350;55;8506;35
36;350;55;8501;36
37;350;55;8506;37
38;350;50;8504;38
39;350;50;8504;39
40;350;55;8506;40
41;350;50;8504;41
42;350;60;8508;42
43;350;55;8508;43
44;350;50;8505;44
45;350;50;8505;45
46;350;55;8506;46
47;350;55;8503;47
48;350;55;8506;48
49;350;55;8506;49
50;350;55;8504;50
51;350;55;8504;51
52;350;55;8508;52
53;350;55;8503;53
54;350;55;8505;54
55;350;50;8505;55
56;350;55;8504;56
57;350;55;8506;57
58;350;55;8506;58
59;350;55;8505;59
60;350;50;8506;60
61;350;55;8506;61
62;350;55;8505;62
63;350;55;8503;63
64;350;50;8502;64
65;350;50;8502;65
66;350;55;8505;66
67;350;55;8505;67
68;350;55;8504;68
69;350;50;8503;69
70;350;50;8503;70
71;350;55;8505;71
72;350;50;8505;72
73;350;55;8506;73
74;350;55;8503;74
75;350;55;8502;75
76;350;50;8506;76
77;350;50;8500;77
78;350;55;8505;78
79;350;55;8502;79
80;350;55;8501;80
81;350;55;8506;81
82;350;50;8505;82
83;350;50;8504;83
84;350;55;8505;84
85;350;50;8503;85
86;350;50;8503;86
87;350;50;8506;87
88;350;55;8506;88
89;350;55;8507;89
90;350;50;8507;90
91;350;50;8504;91
92;350;50;8504;92
93;350;50;8504;93
94;350;50;8501;94
95;350;55;8507;95
96;350;50;8504;96
97;350;55;8505;97
98;350;50;8503;98
99;350;50;8505;99
100;350;50;8505;100
1;400;50;10942;1
2;400;50;10944;2
3;400;45;10939;3
4;400;55;10939;4
5;400;55;10940;5
6;400;55;10941;6
7;400;55;10941;7
8;400;60;10943;8
9;400;50;10938;9
10;400;55;10940;10
11;400;55;10939;11
12;400;55;10941;12
13;400;55;10937;13
14;400;55;10939;14
15;400;55;10939;15
16;400;50;10938;16
17;400;55;10941;17
18;400;55;10938;18
19;400;55;10939;19
20;400;55;10941;20
21;400;50;10941;21
22;400;50;10942;22
23;400;50;10940;23
24;400;50;10941;24
25;400;50;10941;25
26;400;55;10942;26
27;400;55;10941;27
28;400;55;10942;28
29;400;55;10941;29
30;400;55;10937;30
31;400;55;10939;31
32;400;55;10941;32
33;400;55;10941;33
34;400;50;10941;34
35;400;55;10941;35
36;400;55;10941;36
37;400;50;10942;37
38;400;50;10939;38
39;400;50;10942;39
40;400;55;10938;40
41;400;50;10943;41
42;400;50;10943;42
43;400;50;10940;43
44;400;50;10944;44
45;400;60;10939;45
46;400;50;10944;46
47;400;55;10941;47
48;400;55;10941;48
49;400;55;10939;49
50;400;50;10944;50
51;400;60;10940;51
52;400;50;10938;52
53;400;50;10939;53
54;400;50;10941;54
55;400;55;10942;55
56;400;55;10940;56
57;400;50;10943;57
58;400;50;10942;58
59;400;55;10941;59
60;400;50;10943;60
61;400;50;10940;61
62;400;55;10942;62
63;400;50;10942;63
64;400;50;10939;64
65;400;50;10941;65
66;400;60;10938;66
67;400;55;10941;67
68;400;60;10942;68
69;400;55;10941;69
70;400;50;10940;70
71;400;50;10942;71
72;400;55;10940;72
73;400;55;10940;73
74;400;50;10941;74
75;400;55;10938;75
76;400;50;10940;76
77;400;50;10938;77
78;400;55;10939;78
79;400;50;10944;79
80;400;50;10941;80
81;400;55;10943;81
82;400;50;10940;82
83;400;50;10941;83
84;400;60;10938;84
85;400;55;10943;85
86;400;55;10940;86
87;400;50;10942;87
88;400;50;10943;88
89;400;55;10941;89
90;400;55;10943;90
91;400;55;10940;91
92;400;50;10943;92
93;400;50;10940;93
94;400;50;10939;94
95;400;50;10943;95
96;400;60;10940;96
97;400;50;10940;97
98;400;55;10939;98
99;400;50;10941;99
100;400;50;10943;100
1;450;55;13786;1
2;450;55;13788;2
3;450;55;13784;3
4;450;55;13789;4
5;450;50;13786;5
6;450;55;13785;6
7;450;50;13783;7
8;450;55;13786;8
9;450;50;13789;9
10;450;50;13790;10
11;450;55;13787;11
12;450;50;13786;12
13;450;50;13786;13
14;450;55;13789;14
15;450;55;13789;15
16;450;55;13785;16
17;450;50;13788;17
18;450;55;13787;18
19;450;55;13792;19
20;450;50;13789;20
21;450;55;13789;21
22;450;50;13789;22
23;450;55;13792;23
24;450;60;13791;24
25;450;50;13787;25
26;450;50;13788;26
27;450;55;13784;27
28;450;55;13789;28
29;450;55;13785;29
30;450;55;13789;30
31;450;50;13790;31
32;450;50;13786;32
33;450;50;13786;33
34;450;50;13788;34
35;450;55;13790;35
36;450;50;13788;36
37;450;55;13788;37
38;450;50;13788;38
39;450;55;13786;39
40;450;55;13789;40
41;450;55;13786;41
42;450;50;13785;42
43;450;50;13787;43
44;450;50;13789;44
45;450;50;13787;45
46;450;50;13786;46
47;450;55;13785;47
48;450;50;13788;48
49;450;55;13787;49
50;450;50;13789;50
51;450;55;13787;51
52;450;55;13791;52
53;450;55;13789;53
54;450;50;13790;54
55;450;50;13783;55
56;450;50;13786;56
57;450;50;13789;57
58;450;55;13791;58
59;450;55;13788;59
60;450;50;13785;60
61;450;50;13787;61
62;450;55;13788;62
63;450;55;13784;63
64;450;50;13790;64
65;450;50;13787;65
66;450;55;13785;66
67;450;55;13788;67
68;450;50;13790;68
69;450;55;13786;69
70;450;55;13787;70
71;450;50;13792;71
72;450;55;13785;72
73;450;60;13791;73
74;450;55;13785;74
75;450;55;13789;75
76;450;55;13789;76
77;450;55;13790;77
78;450;55;13787;78
79;450;50;13787;79
80;450;55;13788;80
81;450;55;13787;81
82;450;55;13788;82
83;450;50;13787;83
84;450;55;13788;84
85;450;55;13791;85
86;450;55;13788;86
87;450;55;13785;87
88;450;55;13785;88
89;450;50;13786;89
90;450;55;13792;90
91;450;55;13786;91
92;450;55;13789;92
93;450;50;13786;93
94;450;50;13792;94
95;450;55;13786;95
96;450;50;13790;96
97;450;55;13788;97
98;450;50;13791;98
99;450;55;13784;99
100;450;50;13789;100
1;500;55;17267;1
2;500;50;17270;2
3;500;55;17273;3
4;500;55;17272;4
5;500;50;17272;5
6;500;55;17271;6
7;500;55;17272;7
8;500;55;17271;8
9;500;50;17270;9
10;500;50;17271;10
11;500;60;17270;11
12;500;50;17270;12
13;500;50;17271;13
14;500;50;17272;14
15;500;55;17269;15
16;500;55;17271;16
17;500;50;17272;17
18;500;55;17269;18
19;500;55;17269;19
20;500;55;17274;20
21;500;55;17274;21
22;500;50;17273;22
23;500;55;17272;23
24;500;55;17274;24
25;500;55;17271;25
26;500;50;17270;26
27;500;55;17269;27
28;500;50;17271;28
29;500;50;17274;29
30;500;55;17275;30
31;500;55;17268;31
32;500;50;17276;32
33;500;55;17269;33
34;500;55;17272;34
35;500;50;17271;35
36;500;55;17269;36
37;500;55;17273;37
38;500;55;17272;38
39;500;55;17265;39
40;500;55;17269;40
41;500;50;17270;41
42;500;50;17273;42
43;500;55;17271;43
44;500;55;17270;44
45;500;55;17270;45
46;500;55;17269;46
47;500;55;17274;47
48;500;55;17270;48
49;500;50;17271;49
50;500;50;17271;50
51;500;50;17269;51
52;500;55;17268;52
53;500;50;17273;53
54;500;50;17272;54
55;500;55;17271;55
56;500;55;17269;56
57;500;55;17271;57
58;500;55;17274;58
59;500;50;17273;59
60;500;55;17271;60
61;500;55;17270;61
62;500;50;17269;62
63;500;50;17270;63
64;500;50;17272;64
65;500;50;17273;65
66;500;50;17272;66
67;500;55;17272;67
68;500;50;17273;68
69;500;55;17270;69
70;500;50;17272;70
71;500;50;17270;71
72;500;50;17274;72
73;500;50;17274;73
74;500;55;17270;74
75;500;50;17271;75
76;500;50;17269;76
77;500;55;17268;77
78;500;55;17268;78
79;500;50;17273;79
80;500;55;17268;80
81;500;55;17276;81
82;500;50;17273;82
83;500;55;17270;83
84;500;55;17274;84
85;500;50;17271;85
86;500;55;17269;86
87;500;50;17271;87
88;500;50;17269;88
89;500;55;17273;89
90;500;55;17267;90
91;500;55;17270;91
92;500;55;17272;92
93;500;55;17268;93
94;500;50;17273;94
95;500;50;17269;95
96;500;55;17274;96
97;500;50;17272;97
98;500;55;17273;98
99;500;55;17271;99
100;500;55;17269;100
1;550;50;20858;1
2;550;55;20854;2
3;550;55;20860;3
4;550;50;20855;4
5;550;55;20860;5
6;550;50;20852;6
7;550;50;20852;7
8;550;50;20852;8
9;550;55;20852;9
10;550;50;20857;10
11;550;50;20856;11
12;550;50;20853;12
13;550;55;20857;13
14;550;55;20855;14
15;550;55;20857;15
16;550;55;20863;16
17;550;50;20853;17
18;550;55;20860;18
19;550;55;20860;19
20;550;55;20864;20
21;550;50;20847;21
22;550;55;20857;22
23;550;50;20851;23
24;550;50;20854;24
25;550;55;20860;25
26;550;50;20856;26
27;550;55;20860;27
28;550;50;20859;28
29;550;55;20859;29
30;550;55;20860;30
31;550;55;20866;31
32;550;55;20857;32
33;550;55;20860;33
34;550;55;20870;34
35;550;55;20862;35
36;550;55;20863;36
37;550;55;20855;37
38;550;55;20865;38
39;550;50;20857;39
40;550;55;20859;40
41;550;55;20861;41
42;550;50;20858;42
43;550;55;20850;43
44;550;55;20855;44
45;550;55;20859;45
46;550;55;20865;46
47;550;55;20857;47
48;550;50;20854;48
49;550;50;20855;49
50;550;55;20853;50
51;550;50;20856;51
52;550;55;20860;52
53;550;50;20859;53
54;550;50;20855;54
55;550;55;20856;55
56;550;55;20864;56
57;550;50;20852;57
58;550;55;20863;58
59;550;55;20857;59
60;550;50;20853;60
61;550;50;20852;61
62;550;55;20854;62
63;550;55;20864;63
64;550;55;20862;64
65;550;55;20863;65
66;550;50;20856;66
67;550;55;20858;67
68;550;50;20852;68
69;550;50;20859;69
70;550;55;20856;70
71;550;50;20859;71
72;550;55;20854;72
73;550;50;20859;73
74;550;50;20857;74
75;550;55;20857;75
76;550;55;20862;76
77;550;55;20856;77
78;550;55;20864;78
79;550;55;20861;79
80;550;55;20861;80
81;550;50;20854;81
82;550;55;20862;82
83;550;55;20856;83
84;550;55;20862;84
85;550;55;20855;85
86;550;55;20861;86
87;550;50;20855;87
88;550;50;20857;88
89;550;55;20866;89
90;550;50;20857;90
91;550;55;20866;91
92;550;50;20861;92
93;550;55;20864;93
94;550;50;20853;94
95;550;55;20863;95
96;550;50;20857;96
97;550;55;20852;97
98;550;50;20860;98
99;550;55;20860;99
100;550;50;20853;100
1;600;55;24785;1
2;600;50;24790;2
3;600;55;24790;3
4;600;50;24786;4
5;600;60;24788;5
6;600;55;24789;6
7;600;50;24785;7
8;600;55;24790;8
9;600;50;24786;9
10;600;55;24785;10
11;600;55;24790;11
12;600;55;24786;12
13;600;50;24788;13
14;600;55;24792;14
15;600;55;24790;15
16;600;50;24786;16
17;600;55;24785;17
18;600;55;24789;18
19;600;55;24785;19
20;600;55;24787;20
21;600;55;24786;21
22;600;55;24787;22
23;600;55;24787;23
24;600;55;24789;24
25;600;50;24784;25
26;600;55;24790;26
27;600;55;24786;27
28;600;55;24786;28
29;600;55;24787;29
30;600;55;24787;30
31;600;50;24788;31
32;600;55;24782;32
33;600;50;24789;33
34;600;50;24785;34
35;600;55;24781;35
36;600;55;24786;36
37;600;60;24793;37
38;600;55;24791;38
39;600;50;24785;39
40;600;55;24786;40
41;600;55;24784;41
42;600;55;24789;42
43;600;55;24787;43
44;600;50;24783;44
45;600;55;24787;45
46;600;55;24782;46
47;600;50;24785;47
48;600;55;24788;48
49;600;50;24788;49
50;600;55;24787;50
51;600;55;24787;51
52;600;55;24786;52
53;600;55;24788;53
54;600;55;24783;54
55;600;50;24784;55
56;600;50;24790;56
57;600;55;24781;57
58;600;55;24792;58
59;600;55;24786;59
60;600;55;24788;60
61;600;60;24789;61
62;600;50;24788;62
63;600;50;24785;63
64;600;55;24786;64
65;600;55;24791;65
66;600;55;24787;66
67;600;50;24788;67
68;600;55;24783;68
69;600;55;24790;69
70;600;55;24788;70
71;600;55;24789;71
72;600;55;24786;72
73;600;55;24787;73
74;600;55;24785;74
75;600;50;24785;75
76;600;50;24785;76
77;600;50;24785;77
78;600;55;24783;78
79;600;55;24786;79
80;600;50;24787;80
81;600;50;24785;81
82;600;55;24784;82
83;600;60;24791;83
84;600;55;24787;84
85;600;50;24784;85
86;600;50;24784;86
87;600;50;24786;87
88;600;55;24783;88
89;600;55;24788;89
90;600;55;24791;90
91;600;60;24792;91
92;600;55;24795;92
93;600;55;24790;93
94;600;55;24787;94
95;600;55;24784;95
96;600;50;24786;96
97;600;55;24790;97
98;600;55;24793;98
99;600;50;24783;99
100;600;50;24787;100
