LINESTRING (12.89436556126585 -17.1575847160776, 138.98800418649108 -45.60948266228227, 247.25640872664655 -67.3669889227762, 324.57197488105334 -91.52049980274889)

LINESTRING (5.134757030482759 -225.3737469587572, 71.73806358637096 -244.77276828571493, 147.52466487186845 -285.1485520342304, 224.34369802510508 -286.80398116079, 322.6320727483576 -323.01548763777777, 323.2787067925895 -324.3087557262416)

LINESTRING (213.99755331739428 -328.18855999163316, 224.34369802510508 -286.80398116079)

MULTILINESTRING ((60.09865079019632 -5.518171919902966, 43.28616564016629 -67.59504016616769, 9.014561295874305 -79.23445296234233), 
  (43.28616564016629 -67.59504016616769, 138.98800418649108 -45.60948266228227, 71.73806358637096 -244.77276828571493))

LINESTRING (247.25640872664655 -67.3669889227762, 147.52466487186845 -285.1485520342304)